* *a*b*c*d*e*f*g*
h               i
*               *
j               k
*l*m*n*o*p*q*r* *
s               t
* *u*v*w*a*b*c*d*
e               f
*               *
g               h
* *x* *y* *z*   *
i               j
*               *
k               l
*a*b*c*d*e*f*g*h*
